STAT 468 Part 2: Assignments 1–3
…
players_full <- all_seats %>%
  left_join(id_time_tbl,   by = "game_id") %>%
  left_join(all_preflop,   by = c("game_id","player")) %>%
  left_join(flop_info,     by = "game_id") %>%
  arrange(game_id, seat)

players_full %>% print(n = 10)

# A tibble: 15,146 × 8
   game_id   seat player stack game_time           preflop_action preflop_amount
   <chr>    <int> <chr>  <dbl> <dttm>              <chr>                   <dbl>
 1 7712987…     1 AARON…  44.4 2016-11-09 22:39:55 checks                  NA   
 2 7712987…     2 odel_…  26.7 2016-11-09 22:39:55 folds                   NA   
 3 7712987…     3 Ilxxx…  10   2016-11-09 22:39:55 calls                    0.25
 4 7712987…     4 Xiniay  31.1 2016-11-09 22:39:55 <NA>                    NA   
 5 7713189…     1 Ilxxx…  20.4 NA                  folds                   NA   
 6 7713189…     2 ls5ndr  51.9 NA                  folds                   NA   
 7 7713189…     4 saida…  56.7 NA                  raises                   3.5 
 8 7713189…     5 Kryuk…  55.1 NA                  folds                   NA   
 9 7713189…     6 v0lan… 101.  NA                  folds                   NA   
10 7794566…     1 n0hvn   57.2 NA                  folds                   NA   
# ℹ 15,136 more rows
# ℹ 1 more variable: flop_cards <chr>

Pivot to Wide Format

players_wide <- players_full %>%
  select(game_id, game_time, player, preflop_action) %>%
  mutate(player = str_to_upper(player)) %>%
  pivot_wider(
    id_cols     = c(game_id, game_time),
    names_from  = player,
    values_from = preflop_action
  )

players_wide %>% print(n = 10)

# A tibble: 2,468 × 251
   game_id   game_time           AARON81 ODEL_NADEL ILXXXLI XINIAY LS5NDR
   <chr>     <dttm>              <chr>   <chr>      <chr>   <chr>  <chr> 
 1 771298781 2016-11-09 22:39:55 checks  folds      calls   <NA>   <NA>  
 2 771318908 NA                  <NA>    <NA>       folds   <NA>   folds 
 3 779456625 NA                  <NA>    <NA>       checks  <NA>   <NA>  
 4 779457092 NA                  <NA>    <NA>       folds   <NA>   <NA>  
 5 779457483 2016-11-19 23:12:49 <NA>    <NA>       folds   <NA>   <NA>  
 6 779458017 2016-11-19 23:13:56 <NA>    <NA>       folds   <NA>   <NA>  
 7 779458296 2016-11-19 23:14:31 <NA>    <NA>       folds   <NA>   <NA>  
 8 779458970 2016-11-19 23:15:56 <NA>    <NA>       folds   <NA>   <NA>  
 9 779459360 2016-11-19 23:16:46 <NA>    <NA>       folds   <NA>   <NA>  
10 779459871 2016-11-19 23:17:49 <NA>    <NA>       folds   <NA>   <NA>  
# ℹ 2,458 more rows
# ℹ 244 more variables: SAIDAFRENTE <chr>, KRYUK13 <chr>, V0LANDITO <chr>,
#   N0HVN <chr>, TBMFC <chr>, NAPRIMER <chr>, LOG_IN <chr>, COLDKILLA <chr>,
#   GMJOHN <chr>, MANTISGUYV10 <chr>, BIGFCK <chr>, VONALARTA <chr>,
#   TANKER123 <chr>, PINEAPPLESAND <chr>, JVIANA <chr>, EMMAGRACE <chr>,
#   SR86 <chr>, WICHONSKI <chr>, CHRISNOLA <chr>, IFLOPZNUTS <chr>,
#   FIRSTCLAN <chr>, `HAID DASALAMI` <chr>, BBDUB27 <chr>, POEPOE28 <chr>, …
